Introduction to Phylogenetics in R
…
td <- make.treedata(tree, pantheria)
td

## $phy 
## 
## Phylogenetic tree with 282 tips and 281 internal nodes.
## 
## Tip labels:
##  Eliomys_quercinus, Sicista_tianshanica, Napaeozapus_insignis, Zapus_princeps, Allactaga_sibirica, Dipus_sagitta, ...
## 
## Rooted; includes branch lengths.
## 
## $dat 
## # A tibble: 282 x 55
##    MSW05_Order MSW05_Family    MSW05_Genus MSW05_Species MSW05_Binomial   
##    <fct>       <fct>           <fct>       <fct>         <fct>            
##  1 Rodentia    Gliridae        Eliomys     quercinus     Eliomys quercinus
##  2 Rodentia    Dipodidae       Sicista     tianshanica   Sicista tianshan
##  3 Rodentia    Dipodidae       Napaeozapus insignis      Napaeozapus insi
##  4 Rodentia    Dipodidae       Zapus       princeps      Zapus princeps   
##  5 Rodentia    Dipodidae       Allactaga   sibirica      Allactaga sibiri
##  6 Rodentia    Dipodidae       Dipus       sagitta       Dipus sagitta    
##  7 Rodentia    Dipodidae       Jaculus     jaculus       Jaculus jaculus  
##  8 Rodentia    Platacanthomyi Typhlomys   cinereus      Typhlomys cinere
##  9 Rodentia    Spalacidae      Myospalax   aspalax       Myospalax aspalax
## 10 Rodentia    Spalacidae      Tachyoryct splendens     Tachyoryctes spl
## # ... with 272 more rows, and 50 more variables: X1.1_ActivityCycle <int>,
## #   X5.1_AdultBodyMass_g <dbl>, X8.1_AdultForearmLen_mm <dbl>,
## #   X13.1_AdultHeadBodyLen_mm <dbl>, X2.1_AgeatEyeOpening_d <dbl>,
## #   X3.1_AgeatFirstBirth_d <dbl>, X18.1_BasalMetRate_mLO2hr <dbl>,
## #   X5.2_BasalMetRateMass_g <dbl>, X6.1_DietBreadth <int>,
## #   X7.1_DispersalAge_d <dbl>, X9.1_GestationLen_d <dbl>,
## #   X12.1_HabitatBreadth <int>, X22.1_HomeRange_km2 <dbl>,
## #   X22.2_HomeRange_Indiv_km2 <dbl>, X14.1_InterbirthInterval_d <dbl>,
## #   X15.1_LitterSize <dbl>, X16.1_LittersPerYear <dbl>,
…
## Warning in log(X18.1_BasalMetRate_mLO2hr): NaNs produced

td2

## $phy 
## 
## Phylogenetic tree with 63 tips and 62 internal nodes.
## 
## Tip labels:
##  Napaeozapus_insignis, Jaculus_jaculus, Tachyoryctes_splendens, Cannomys_badius, Mystromys_albicaudatus, Saccostomus_campestris, ...
## 
## Rooted; includes branch lengths.
## 
## $dat 
## # A tibble: 63 x 3
##    lnMass lnBMR desert
##     <dbl> <dbl>  <dbl>
##  1   3.10  3.68   0   
##  2   4.09  4.52   1.00
##  3   5.43  5.04   0   
##  4   6.16  5.15   0   
##  5   4.46  4.84   0   
##  6   3.92  3.94   0   
##  7   7.14  6.93   1.00
##  8   2.83  3.03   0   
##  9   3.42  4.33   0   
## 10   6.06  5.45   0   
## # ... with 53 more rows
…
